__size_ofi1_USBTransferOnePacket 0 0 ABS 0
___lwdiv@dividend 162 0 BANK2 1
Get_MAX6675@msb 165 0 BANK2 1
_USBDeviceTasks 2C5 0 CODE 0
___awdiv@counter 164 0 BANK2 1
___lwdiv@counter 164 0 BANK2 1
i1USBDeviceInit@i_1363 73 0 COMMON 1
_USBStdFeatureReqHandler 184 0 CODE 0
__end_of_SYS_InterruptHigh 15 0 CODE 0
shell@max_6675_temp 1E4 0 BANK3 1
__end_of_InitSPI_MAX6675 800 0 CODE 0
USBStdFeatureReqHandler@p 6D 0 BANK0 1
__S0 188B 0 ABS 0
__S1 360 0 ABS 0
__S2 0 0 ABS 0
_RemoteWakeup 1CD 0 BANK3 1
_GIE 5F 0 ABS 0
_line_coding 236 0 BANK4 1
_UIE E92 0 ABS 0
_endpoint_number 1CB 0 BANK3 1
_BDT 20 0 ABS 1
_UIR E90 0 ABS 0
__Hintentry 15 0 CODE 0
__Lintentry 4 0 CODE 0
__end_of_configDescriptor1 1043 0 STRCODE 0
__pintentry 4 0 CODE 0
USBEnableEndpoint@p 7A 0 COMMON 1
_dummy_encapsulated_cmd_response 22E 0 BANK4 1
__end_of___awdiv A24 0 CODE 0
_isr 14A4 0 CODE 0
my_itoa@n 1D6 0 BANK3 1
_UEP0 E98 0 ABS 0
_UEP1 E99 0 ABS 0
_RCIE 48D 0 ABS 0
_PEIE 5E 0 ABS 0
_UCFG E91 0 ABS 0
_UEIE E97 0 ABS 0
_RCIF 8D 0 ABS 0
_TXIF 8C 0 ABS 0
USBEnableEndpoint@ep 7C 0 COMMON 1
_UCON E8E 0 ABS 0
my_itoa@p 1D8 0 BANK3 1
_UEIR E93 0 ABS 0
USBStdSetCfgHandler@i 6C 0 BANK0 1
USBStdSetCfgHandler@p 69 0 BANK0 1
__end_of_USB_CD_Ptr 188B 0 STRCODE 0
__size_of_USBCtrlEPAllowDataStage 0 0 ABS 0
_USBStallHandler 1639 0 CODE 0
_main 17BF 0 CODE 0
__end_of_sd001 1868 0 STRCODE 0
_pDst 1CE 0 BANK3 1
___sp 0 0 STACK 2
btemp 7E 0 ABS 0
_sd000 1885 0 STRCODE 0
_sd001 1834 0 STRCODE 0
_sd002 1800 0 STRCODE 0
start 15 0 CODE 0
my_itoa@v 1D9 0 BANK3 1
my_strlen@aStr 160 0 BANK2 1
_WPUA5 1065 0 ABS 0
LED_Enable@led E7 0 BANK1 1
USBCtrlTrfTxService@byteToSend 72 0 COMMON 1
my_itoa@radix 16A 0 BANK2 1
_USBDeferINDataStagePackets 1C5 0 BANK3 1
_USBBusIsSuspended 1CC 0 BANK3 1
__end_of_CDCTxService 4DC 0 CODE 0
_RCREG 199 0 ABS 0
_APP_DeviceCDCEmulatorTasks 40 0 CODE 0
_RCSTA 19D 0 ABS 0
_TXREG 19A 0 ABS 0
_USBWakeFromSuspend 15AC 0 CODE 0
reset_vec 0 0 CODE 0
_SPBRG 19B 0 ABS 0
_TXSTA 19E 0 ABS 0
__size_of_USBWakeFromSuspend 0 0 ABS 0
_UADDR E96 0 ABS 0
wtemp0 7E 0 ABS 0
_USTAT E8F 0 ABS 0
USBCtrlTrfRxService@i 74 0 COMMON 1
__Hconfig 8009 0 CONFIG 4
__Lconfig 0 0 CONFIG 4
__end_of_strOutFromUSART 1539 0 CODE 0
_CDCDataInHandle 1BF 0 BANK3 1
USBConfigureEndpoint@direction 70 0 COMMON 1
__Hstringtext1 0 0 ABS 0
__Lstringtext1 0 0 ABS 0
__size_of_USBDeviceInit 0 0 ABS 0
Check_MAX6675_NC@ConnectionOrNot 162 0 BANK2 1
__pstringtext1 187A 0 STRCODE 0
_Get_MAX6675_Temp 1612 0 CODE 0
?___lwmod 160 0 BANK2 1
__Hbigram 0 0 ABS 0
__Lbigram 0 0 ABS 0
APP_DeviceCDCEmulatorTasks@max_6675_temp_str 1DD 0 BANK3 1
__Hram 0 0 ABS 0
__Lram 0 0 ABS 0
_putch 1498 0 CODE 0
my_strlen@length 161 0 BANK2 1
_shell 4DC 0 CODE 0
__end_of_USBCtrlTrfInHandler D3E 0 CODE 0
__size_of_isr 0 0 ABS 0
USBStdSetCfgHandler@i_2105 6B 0 BANK0 1
putUSBUSART@data E8 0 BANK1 1
__Hstringtext7 0 0 ABS 0
__Lstringtext7 0 0 ABS 0
__pstringtext7 1885 0 STRCODE 0
int$flags 7E 0 ABS 0
__Hfunctab 0 0 ENTRY 0
__Lfunctab 0 0 ENTRY 0
_SetupPkt 50 0 ABS 1
__end_of_USBTransferOnePacket CC6 0 CODE 0
__end_of_putch 14A4 0 CODE 0
_outPipes 1A0 0 BANK3 1
__Hcommon 0 0 ABS 0
__Lcommon 0 0 ABS 0
_pBDTEntryOut 1B5 0 BANK3 1
_PIE2bits 92 0 ABS 0
__Heeprom_data 0 0 EEDATA 3
__Leeprom_data 0 0 EEDATA 3
_UEP0bits E98 0 ABS 0
__size_of_USBConfigureEndpoint 0 0 ABS 0
_PIR2bits 12 0 ABS 0
__size_of_putUSBUSART 0 0 ABS 0
_LATCbits 10E 0 ABS 0
__size_of_my_itoa 0 0 ABS 0
___int_sp 0 0 STACK 2
_ANSELA 18C 0 ABS 0
_UCONbits E8E 0 ABS 0
_ANSELB 18D 0 ABS 0
_ANSELC 18E 0 ABS 0
?___awdiv 160 0 BANK2 1
?___lwdiv 160 0 BANK2 1
__end_of_USBDeviceAttach 15ED 0 CODE 0
_pBDTEntryEP0OutNext EA 0 BANK1 1
_SSPBUF 211 0 ABS 0
_OSCCON 99 0 ABS 0
__Habs1 0 0 ABS 0
__Labs1 0 0 ABS 0
_ACTCON 39B 0 ABS 0
__size_of_USBCtrlTrfSetupHandler 0 0 ABS 0
__Hsfr0 0 0 ABS 0
__Lsfr0 0 0 ABS 0
_nWPUEN 4AF 0 ABS 0
__Hsfr1 0 0 ABS 0
__Lsfr1 0 0 ABS 0
Get_MAX6675_Temp@aMAX6675 168 0 BANK2 1
_USBDeferOUTDataStagePackets 1C4 0 BANK3 1
__Hsfr2 0 0 ABS 0
__Lsfr2 0 0 ABS 0
__Hsfr3 0 0 ABS 0
__Lsfr3 0 0 ABS 0
__Hsfr4 0 0 ABS 0
__Lsfr4 0 0 ABS 0
__Hsfr5 0 0 ABS 0
__Lsfr5 0 0 ABS 0
__Hsfr6 0 0 ABS 0
__Lsfr6 0 0 ABS 0
__Hsfr7 0 0 ABS 0
__Lsfr7 0 0 ABS 0
__Hsfr8 0 0 ABS 0
__Lsfr8 0 0 ABS 0
__Hsfr9 0 0 ABS 0
__Lsfr9 0 0 ABS 0
USBEnableEndpoint@options 77 0 COMMON 1
_InitIO 1539 0 CODE 0
__end_of_InitISR 1492 0 CODE 0
USBDeviceInit@i_1363 162 0 BANK2 1
__size_of_CDCTxService 0 0 ABS 0
_USBCtrlTrfSetupHandler 860 0 CODE 0
USBTransferOnePacket@data 161 0 BANK2 1
__end_of_sd002 1834 0 STRCODE 0
___stackhi 23EF 0 ABS 0
__end_of_USBStdGetDscHandler E41 0 CODE 0
USBDeviceTasks@i E6 0 BANK1 1
__end_of_CDCInitEP 1706 0 CODE 0
_USBCtrlEPService BDA 0 CODE 0
__end_of_memset 81C 0 CODE 0
USBDeviceInit@p 160 0 BANK2 1
__size_of_USBCtrlEPService 0 0 ABS 0
_writeBuffer 320 0 BANK6 1
_InitSPI_MAX6675 7FB 0 CODE 0
__Hcode 0 0 ABS 0
__Lcode 0 0 ABS 0
?_Get_MAX6675_Temp 168 0 BANK2 1
putch@byte E7 0 BANK1 1
__HcstackBANK0 0 0 ABS 0
__LcstackBANK0 0 0 ABS 0
__size_of_USBStallHandler 0 0 ABS 0
__pcstackBANK0 60 0 BANK0 1
__end_of_my_strlen 1520 0 CODE 0
i1USBTransferOnePacket@handle 77 0 COMMON 1
__Hstringtext2 0 0 ABS 0
__Lstringtext2 0 0 ABS 0
__end_of_putsUSBUSART 17BF 0 CODE 0
__end_ofi1_USBDeviceInit 1000 0 CODE 0
__Hinit 15 0 CODE 0
__Linit 15 0 CODE 0
__pstringtext2 1889 0 STRCODE 0
_memset 800 0 CODE 0
__end_of_main 1800 0 CODE 0
__end_of_USER_USB_CALLBACK_EVENT_HANDLER 1697 0 CODE 0
shell@max_6675_temp_str 1DC 0 BANK3 1
__Htext 0 0 ABS 0
__Ltext 0 0 ABS 0
APP_DeviceCDCEmulatorTasks@max_6675_temp_str_len 1EC 0 BANK3 1
Get_MAX6675@msblsb 169 0 BANK2 1
__end_of_USBCtrlEPAllowDataStage 907 0 CODE 0
__end_of_USBStdFeatureReqHandler 2C5 0 CODE 0
end_of_initialization 3C 0 CODE 0
_my_strlen 150A 0 CODE 0
__end_of_Get_MAX6675 7FB 0 CODE 0
___awdiv@sign 165 0 BANK2 1
__Hstringtext8 0 0 ABS 0
__Lstringtext8 0 0 ABS 0
__pstringtext8 1880 0 STRCODE 0
_cdc_trf_state 1D1 0 BANK3 1
___stacklo 2220 0 ABS 0
__Hsfr10 0 0 ABS 0
__Lsfr10 0 0 ABS 0
__Hsfr20 0 0 ABS 0
__Lsfr20 0 0 ABS 0
__Hsfr30 0 0 ABS 0
__Hsfr11 0 0 ABS 0
__Lsfr30 0 0 ABS 0
__Lsfr11 0 0 ABS 0
__Hsfr21 0 0 ABS 0
__Lsfr21 0 0 ABS 0
__Hsfr31 0 0 ABS 0
__Hsfr12 0 0 ABS 0
__Lsfr31 0 0 ABS 0
__Lsfr12 0 0 ABS 0
__Hsfr22 0 0 ABS 0
__Lsfr22 0 0 ABS 0
__size_of_USBCtrlTrfOutHandler 0 0 ABS 0
__Hsfr13 0 0 ABS 0
__Lsfr13 0 0 ABS 0
__Hsfr23 0 0 ABS 0
__Lsfr23 0 0 ABS 0
__size_of_USBStdGetStatusHandler 0 0 ABS 0
__Hsfr14 0 0 ABS 0
__Lsfr14 0 0 ABS 0
__Hsfr24 0 0 ABS 0
strOutFromUSART@str 160 0 BANK2 1
__end_of_BUTTON_Enable 14C0 0 CODE 0
__Lsfr24 0 0 ABS 0
__Hsfr15 0 0 ABS 0
__Lsfr15 0 0 ABS 0
__Hsfr25 0 0 ABS 0
__Lsfr25 0 0 ABS 0
__Hsfr16 0 0 ABS 0
__Lsfr16 0 0 ABS 0
__end_of_USBCtrlEPAllowStatusStage BDA 0 CODE 0
__Hsfr26 0 0 ABS 0
__Lsfr26 0 0 ABS 0
__size_of_putch 0 0 ABS 0
__Hsfr17 0 0 ABS 0
__Lsfr17 0 0 ABS 0
__Hsfr27 0 0 ABS 0
__Lsfr27 0 0 ABS 0
__Hsfr18 0 0 ABS 0
__Lsfr18 0 0 ABS 0
__Hsfr28 0 0 ABS 0
CDCTxService@i 16A 0 BANK2 1
__Lsfr28 0 0 ABS 0
__Hsfr19 0 0 ABS 0
__Lsfr19 0 0 ABS 0
__Hsfr29 0 0 ABS 0
__HnvBANK3 0 0 ABS 0
__Lsfr29 0 0 ABS 0
__LnvBANK3 0 0 ABS 0
__pnvBANK3 1ED 0 BANK3 1
_LED_Enable 14E3 0 CODE 0
_TRISAbits 8C 0 ABS 0
_TRISBbits 8D 0 ABS 0
_TRISCbits 8E 0 ABS 0
_PORTAbits C 0 ABS 0
__size_of_LED_Enable 0 0 ABS 0
__Hstrings 0 0 ABS 0
__Lstrings 0 0 ABS 0
_USBCtrlEPServiceComplete ECF 0 CODE 0
_SYSTEM_Initialize 1570 0 CODE 0
__end_of_USBCtrlTrfSetupHandler 8AD 0 CODE 0
USBStdGetStatusHandler@p 71 0 COMMON 1
SYSTEM_Initialize@state E8 0 BANK1 1
Check_MAX6675_NC@aMAX6675 160 0 BANK2 1
__Hbank0 0 0 ABS 0
__Lbank0 0 0 ABS 0
_BAUDCON 19F 0 ABS 0
__Hbank1 0 0 ABS 0
__Lbank1 0 0 ABS 0
__Hbank2 0 0 ABS 0
_SYS_InterruptHigh 4 0 CODE 0
__Lbank2 0 0 ABS 0
__Hbank3 0 0 ABS 0
__Lbank3 0 0 ABS 0
___latbits 2 0 ABS 0
__Hbank4 0 0 ABS 0
__Lbank4 0 0 ABS 0
_USBCtrlTrfOutHandler 1697 0 CODE 0
__Hbank5 0 0 ABS 0
__Lbank5 0 0 ABS 0
__size_of_USBDeviceTasks 0 0 ABS 0
APP_DeviceCDCEmulatorTasks@max_6675 1EA 0 BANK3 1
__size_of_SYS_InterruptHigh 0 0 ABS 0
__Hpowerup 0 0 CODE 0
__Lpowerup 0 0 CODE 0
__Hbank6 0 0 ABS 0
__Lbank6 0 0 ABS 0
_USBStdSetCfgHandler E41 0 CODE 0
_cdc_mem_type 1C1 0 BANK3 1
__Hbank7 0 0 ABS 0
USBTransferOnePacket@ep 164 0 BANK2 1
__Lbank7 0 0 ABS 0
__Hbank8 0 0 ABS 0
_device_dsc 1868 0 STRCODE 0
__Lbank8 0 0 ABS 0
APP_DeviceCDCEmulatorTasks@i 1E7 0 BANK3 1
__Hbank9 0 0 ABS 0
__Lbank9 0 0 ABS 0
_USBAlternateInterface 1D3 0 BANK3 1
__end_of_InitIO 1553 0 CODE 0
__ptext1 4DC 0 CODE 0
_Check_MAX6675_NC 14F6 0 CODE 0
__end_of_Get_MAX6675_Temp 1639 0 CODE 0
_USTATcopy EC 0 BANK1 1
__ptext2 1520 0 CODE 0
__size_of_APP_DeviceCDCEmulatorInitialize 0 0 ABS 0
__ptext3 1498 0 CODE 0
_USBCtrlEPAllowStatusStage B67 0 CODE 0
__ptext4 67A 0 CODE 0
__ptext5 15CC 0 CODE 0
my_itoa@val 167 0 BANK2 1
__ptext6 1570 0 CODE 0
_InitISR 148D 0 CODE 0
__ptext7 14E3 0 CODE 0
_USBDeviceInit 67A 0 CODE 0
__HcstackBANK1 0 0 ABS 0
__LcstackBANK1 0 0 ABS 0
__ptext8 14B2 0 CODE 0
getsUSBUSART@len 166 0 BANK2 1
putsUSBUSART@len 167 0 BANK2 1
__ptext9 14C0 0 CODE 0
__pcstackBANK1 E0 0 BANK1 1
__Hclrtext 0 0 ABS 0
_USBSuspend 158D 0 CODE 0
__Lclrtext 0 0 ABS 0
_pBDTEntryEP0OutCurrent EB 0 BANK1 1
__Hstringtext3 0 0 ABS 0
__Lstringtext3 0 0 ABS 0
__pstringtext3 1000 0 STRCODE 0
__size_of_USBStdFeatureReqHandler 0 0 ABS 0
__end_of_USBCtrlTrfOutHandler 16CB 0 CODE 0
__size_of_Check_MAX6675_NC 0 0 ABS 0
__size_of_USBEnableEndpoint 0 0 ABS 0
USER_USB_CALLBACK_EVENT_HANDLER@size 66 0 BANK0 1
APP_DeviceCDCEmulatorTasks@j 1E9 0 BANK3 1
__end_of_USBCtrlEPServiceComplete F64 0 CODE 0
_USBCtrlEPAllowDataStage 8AD 0 CODE 0
__end_of_USBSuspend 15AC 0 CODE 0
__size_of_shell 0 0 ABS 0
__Hstringtext9 0 0 ABS 0
__end_of__initialization 3C 0 CODE 0
__Lstringtext9 0 0 ABS 0
__pstringtext9 0 0 STRCODE 0
memset@c 72 0 COMMON 1
_USBCtrlTrfInHandler CC6 0 CODE 0
__end_of_USBStdSetCfgHandler ECF 0 CODE 0
USER_USB_CALLBACK_EVENT_HANDLER@pdata 64 0 BANK0 1
__end_of___lwdiv 1780 0 CODE 0
USER_USB_CALLBACK_EVENT_HANDLER@event 62 0 BANK0 1
shell@max_6675 1E6 0 BANK3 1
__end_of_USBStdGetStatusHandler 962 0 CODE 0
_CDCTxService$2859 168 0 BANK2 1
i1_USBTransferOnePacket 962 0 CODE 0
_SSPSTATbits 214 0 ABS 0
_pCDCSrc 1BA 0 BANK3 1
__size_of_memset 0 0 ABS 0
memset@n 74 0 COMMON 1
__end_of_USBWakeFromSuspend 15CC 0 CODE 0
memset@p 76 0 COMMON 1
_gSwMode 1ED 0 BANK3 1
?_Get_MAX6675 160 0 BANK2 1
_ep_data_in 1AF 0 BANK3 1
?_Check_MAX6675_NC 160 0 BANK2 1
_my_itoa 5C7 0 CODE 0
__Hstack 0 0 STACK 2
__Lstack 0 0 STACK 2
_pCDCDst 1B8 0 BANK3 1
__end_of_device_dsc 187A 0 STRCODE 0
_gRxChar 1D0 0 BANK3 1
___lwmod 1706 0 CODE 0
__size_of_Get_MAX6675 0 0 ABS 0
__end_of_putUSBUSART 1570 0 CODE 0
__Hspace_0 188B 0 ABS 0
__Lspace_0 0 0 ABS 0
__end_of_isr 14B2 0 CODE 0
__end_of_APP_DeviceCDCEmulatorInitialize 14E3 0 CODE 0
USBTransferOnePacket@handle 165 0 BANK2 1
_USB_CD_Ptr 1889 0 STRCODE 0
__Hspace_1 360 0 ABS 0
__Lspace_1 0 0 ABS 0
_USBCheckStdRequest D3E 0 CODE 0
_inPipes 1A7 0 BANK3 1
_USB_SD_Ptr 187A 0 STRCODE 0
__Hspace_2 0 0 ABS 0
__Lspace_2 0 0 ABS 0
_cdc_rx_len 1C3 0 BANK3 1
_cdc_tx_len 1C2 0 BANK3 1
__Hcinit 40 0 CODE 0
__Lcinit 17 0 CODE 0
_UIEbits E92 0 ABS 0
_UIRbits E90 0 ABS 0
_CDCTxService 3EA 0 CODE 0
___awdiv 9C0 0 CODE 0
putUSBUSART@length 160 0 BANK2 1
__Hspace_3 0 0 ABS 0
___lwdiv 1741 0 CODE 0
__Lspace_3 0 0 ABS 0
__end_of_InitUSART 14D0 0 CODE 0
__size_of_main 0 0 ABS 0
__size_of_InitSPI_MAX6675 0 0 ABS 0
_strOutFromUSART 1520 0 CODE 0
__Hspace_4 10010 0 ABS 0
__Lspace_4 0 0 ABS 0
__size_ofi1_USBDeviceInit 0 0 ABS 0
_readBuffer 2A0 0 BANK5 1
_CtrlTrfData 58 0 ABS 1
__HcstackBANK2 0 0 ABS 0
__LcstackBANK2 0 0 ABS 0
_USBStdGetDscHandler DBE 0 CODE 0
_USER_USB_CALLBACK_EVENT_HANDLER 1665 0 CODE 0
_shortPacketStatus 1CF 0 BANK3 1
__pcstackBANK2 160 0 BANK2 1
__end_of_USBCtrlTrfRxService 7C7 0 CODE 0
__end_of_USBCtrlTrfTxService B67 0 CODE 0
__size_of_InitISR 0 0 ABS 0
__Hstringtext4 0 0 ABS 0
__Lstringtext4 0 0 ABS 0
__pstringtext4 1800 0 STRCODE 0
__size_of_USBCtrlEPAllowStatusStage 0 0 ABS 0
clear_ram0 1492 0 CODE 0
__end_of_USBEnableEndpoint 1612 0 CODE 0
__size_of_SYSTEM_Initialize 0 0 ABS 0
__size_of___lwdiv 0 0 ABS 0
_SSP1CON1 215 0 ABS 0
__Hbank10 0 0 ABS 0
APP_DeviceCDCEmulatorTasks@numBytesRead 1E8 0 BANK3 1
__Lbank10 0 0 ABS 0
__Hbank20 0 0 BANK20 1
__Lbank20 0 0 BANK20 1
__size_of_USBCtrlTrfRxService 0 0 ABS 0
__size_of_USBCtrlTrfTxService 0 0 ABS 0
__Hbank30 0 0 BANK30 1
__Hbank11 0 0 ABS 0
__Lbank30 0 0 BANK30 1
__Lbank11 0 0 ABS 0
APP_LEDUpdateUSBStatus@ledCount 1BC 0 BANK3 1
__Hbank21 0 0 BANK21 1
__Lbank21 0 0 BANK21 1
USBCtrlTrfInHandler@lastDTS 75 0 COMMON 1
__Hbank31 0 0 BANK31 1
__Hbank12 0 0 ABS 0
__Lbank31 0 0 BANK31 1
__Lbank12 0 0 ABS 0
__end_of_SYSTEM_Initialize 158D 0 CODE 0
_USBStatusStageEnabledFlag1 1C7 0 BANK3 1
__Hbank22 0 0 BANK22 1
__Lbank22 0 0 BANK22 1
__Hbank13 0 0 BANK13 1
__Lbank13 0 0 BANK13 1
USBConfigureEndpoint@EPNum 75 0 COMMON 1
Get_MAX6675_Temp@temp 16C 0 BANK2 1
_USBEnableEndpoint 15ED 0 CODE 0
__HbssBANK1 0 0 ABS 0
__LbssBANK1 0 0 ABS 0
__Hbank23 0 0 BANK23 1
__Lbank23 0 0 BANK23 1
__Hbank14 0 0 BANK14 1
__size_of_USBCtrlTrfInHandler 0 0 ABS 0
__pbssBANK1 E9 0 BANK1 1
__Lbank14 0 0 BANK14 1
__Hbank24 0 0 BANK24 1
__Lbank24 0 0 BANK24 1
__ptext10 7FB 0 CODE 0
__Hbank15 0 0 BANK15 1
__Lbank15 0 0 BANK15 1
__ptext20 A8A 0 CODE 0
CDCTxService@byte_to_send 16B 0 BANK2 1
__Hbank25 0 0 BANK25 1
__Lbank25 0 0 BANK25 1
USBStdFeatureReqHandler@current_ep_data 6C 0 BANK0 1
__ptext11 148D 0 CODE 0
__ptext30 F64 0 CODE 0
__Hbank16 0 0 BANK16 1
__Lbank16 0 0 BANK16 1
i1USBTransferOnePacket@ep 76 0 COMMON 1
_USBStatusStageEnabledFlag2 1C6 0 BANK3 1
__ptext21 1612 0 CODE 0
__ptext40 800 0 CODE 0
__Hbank26 0 0 BANK26 1
__Lbank26 0 0 BANK26 1
__end_of_Check_MAX6675_NC 150A 0 CODE 0
__ptext12 1539 0 CODE 0
__ptext31 15AC 0 CODE 0
__ptext50 81C 0 CODE 0
__Hbank17 0 0 BANK17 1
__Lbank17 0 0 BANK17 1
__ptext22 9C0 0 CODE 0
__ptext41 907 0 CODE 0
__Hbank27 0 0 BANK27 1
__Lbank27 0 0 BANK27 1
__size_of_USBCheckCDCRequest 0 0 ABS 0
__ptext13 40 0 CODE 0
__ptext32 158D 0 CODE 0
__ptext51 1697 0 CODE 0
__Hbank18 0 0 BANK18 1
__Lbank18 0 0 BANK18 1
USBTransferOnePacket@len 163 0 BANK2 1
__ptext23 7C7 0 CODE 0
__ptext42 DBE 0 CODE 0
__Hbank28 0 0 BANK28 1
__size_of___awdiv 0 0 ABS 0
__Lbank28 0 0 BANK28 1
__ptext14 1780 0 CODE 0
__ptext33 1639 0 CODE 0
__ptext52 727 0 CODE 0
__Hbank19 0 0 BANK19 1
__Lbank19 0 0 BANK19 1
__ptext24 14F6 0 CODE 0
__ptext43 184 0 CODE 0
__Hbank29 0 0 BANK29 1
__Lbank29 0 0 BANK29 1
__ptext15 1553 0 CODE 0
__ptext34 BDA 0 CODE 0
__ptext53 B67 0 CODE 0
USBTransferOnePacket@dir 160 0 BANK2 1
__ptext25 3EA 0 CODE 0
__ptext44 1665 0 CODE 0
_cdc_data_rx 120 0 ABS 1
__ptext16 150A 0 CODE 0
__ptext35 860 0 CODE 0
__ptext54 CC6 0 CODE 0
__HbssBANK3 0 0 ABS 0
__ptext26 C50 0 CODE 0
__ptext45 A24 0 CODE 0
__LbssBANK3 0 0 ABS 0
__size_of_USBCheckStdRequest 0 0 ABS 0
__ptext17 5C7 0 CODE 0
__ptext36 ECF 0 CODE 0
__ptext55 AF5 0 CODE 0
__pbssBANK3 1A0 0 BANK3 1
__end_of___lwmod 1741 0 CODE 0
__ptext46 14D0 0 CODE 0
___lwmod@divisor 160 0 BANK2 1
BUTTON_Enable@button E7 0 BANK1 1
__ptext18 1706 0 CODE 0
__ptext37 8AD 0 CODE 0
__ptext28 14A4 0 CODE 0
__ptext47 16CB 0 CODE 0
__end_of_shell 5C7 0 CODE 0
__ptext19 1741 0 CODE 0
__ptext38 D3E 0 CODE 0
__ptext29 2C5 0 CODE 0
__ptext48 962 0 CODE 0
__ptext39 E41 0 CODE 0
__HbssBANK4 0 0 ABS 0
__ptext49 15ED 0 CODE 0
__LbssBANK4 0 0 ABS 0
_INTCONbits B 0 ABS 0
getsUSBUSART@buffer 169 0 BANK2 1
_ep_data_out 1AC 0 BANK3 1
__pbssBANK4 220 0 BANK4 1
_controlTransferState E9 0 BANK1 1
__size_of_USBCtrlEPServiceComplete 0 0 ABS 0
__Hend_init 17 0 CODE 0
__Lend_init 15 0 CODE 0
_InitUSART 14C0 0 CODE 0
__end_of_USBConfigureEndpoint 860 0 CODE 0
_USBActiveConfiguration 1D5 0 BANK3 1
_CDCDataOutHandle 1C0 0 BANK3 1
_USBCtrlTrfRxService 727 0 CODE 0
___awdiv@divisor 160 0 BANK2 1
_cdc_data_tx A0 0 ABS 1
___lwdiv@divisor 160 0 BANK2 1
_pBDTEntryIn 1B2 0 BANK3 1
__size_of_InitUSART 0 0 ABS 0
_Get_MAX6675 7C7 0 CODE 0
__HbssBANK5 0 0 ABS 0
__LbssBANK5 0 0 ABS 0
__pbssBANK5 2A0 0 BANK5 1
__size_of_putsUSBUSART 0 0 ABS 0
_USBDeferStatusStagePacket 1C8 0 BANK3 1
_USBStatusStageTimeoutCounter 1C9 0 BANK3 1
__end_of_USBDeviceInit 727 0 CODE 0
__HbssBANK6 0 0 ABS 0
__LbssBANK6 0 0 ABS 0
memset@p1 70 0 COMMON 1
__Hreset_vec 2 0 CODE 0
__pbssBANK6 320 0 BANK6 1
__Lreset_vec 0 0 CODE 0
__HcstackBANK3 0 0 ABS 0
__LcstackBANK3 0 0 ABS 0
__size_of_Get_MAX6675_Temp 0 0 ABS 0
__pcstackBANK3 1D6 0 BANK3 1
_CDCInitEP 16CB 0 CODE 0
__Hstringtext5 0 0 ABS 0
__Lstringtext5 0 0 ABS 0
__size_of_USBStdSetCfgHandler 0 0 ABS 0
__pstringtext5 1834 0 STRCODE 0
__size_of_USBStdGetDscHandler 0 0 ABS 0
__end_of_USB_SD_Ptr 1880 0 STRCODE 0
_control_signal_bitmap 1BE 0 BANK3 1
i1_USBDeviceInit F64 0 CODE 0
__size_of_USER_USB_CALLBACK_EVENT_HANDLER 0 0 ABS 0
__end_of_my_itoa 67A 0 CODE 0
_USBDeviceAttach 15CC 0 CODE 0
intlevel0 0 0 ENTRY 0
putsUSBUSART@data 160 0 BANK2 1
_configDescriptor1 1000 0 STRCODE 0
_getsUSBUSART$2811 16A 0 BANK2 1
_SSP1STAT 214 0 ABS 0
intlevel1 0 0 ENTRY 0
Get_MAX6675_Temp@temparature 16E 0 BANK2 1
intlevel2 0 0 ENTRY 0
i1USBTransferOnePacket@len 73 0 COMMON 1
intlevel3 0 0 ENTRY 0
_USBCtrlTrfTxService AF5 0 CODE 0
__end_of_getsUSBUSART AF5 0 CODE 0
USBDeviceInit@i 163 0 BANK2 1
intlevel4 0 0 ENTRY 0
__end_of_APP_DeviceCDCEmulatorTasks 184 0 CODE 0
USBStdFeatureReqHandler@pUEP 6A 0 BANK0 1
putsUSBUSART@pData 165 0 BANK2 1
intlevel5 0 0 ENTRY 0
__size_of_InitIO 0 0 ABS 0
__size_of_USBSuspend 0 0 ABS 0
__size_of___lwmod 0 0 ABS 0
i1USBTransferOnePacket@dir 70 0 COMMON 1
USBConfigureEndpoint@handle 76 0 COMMON 1
__HcstackCOMMON 0 0 ABS 0
__LcstackCOMMON 0 0 ABS 0
__pcstackCOMMON 70 0 COMMON 1
__size_of_APP_DeviceCDCEmulatorTasks 0 0 ABS 0
_USBConfigureEndpoint 81C 0 CODE 0
start_initialization 17 0 CODE 0
__end_of_sd000 1889 0 STRCODE 0
__size_of_getsUSBUSART 0 0 ABS 0
___awdiv@quotient 166 0 BANK2 1
___lwdiv@quotient 165 0 BANK2 1
_BothEP0OutUOWNsSet 1CA 0 BANK3 1
USBCtrlTrfRxService@byteToRead 75 0 COMMON 1
_USBTransferOnePacket C50 0 CODE 0
__size_of_CDCInitEP 0 0 ABS 0
__end_of_LED_Enable 14F6 0 CODE 0
_getsUSBUSART A8A 0 CODE 0
Get_MAX6675@lsb 167 0 BANK2 1
_APP_DeviceCDCEmulatorInitialize 14D0 0 CODE 0
_putsUSBUSART 1780 0 CODE 0
__Hmaintext 0 0 ABS 0
__size_of_strOutFromUSART 0 0 ABS 0
__Lmaintext 0 0 ABS 0
__pmaintext 17BF 0 CODE 0
__end_ofi1_USBTransferOnePacket 9C0 0 CODE 0
__end_of_USBCtrlEPService C50 0 CODE 0
__size_of_USBDeviceAttach 0 0 ABS 0
__end_of_USBStallHandler 1665 0 CODE 0
i1USBDeviceInit@i 74 0 COMMON 1
i1USBDeviceInit@p 71 0 COMMON 1
__end_of_USBDeviceTasks 3EA 0 CODE 0
__initialization 17 0 CODE 0
i1USBTransferOnePacket@data 71 0 COMMON 1
_putUSBUSART 1553 0 CODE 0
__end_of_USBCheckCDCRequest A8A 0 CODE 0
_USBCheckCDCRequest A24 0 CODE 0
_USBStdGetStatusHandler 907 0 CODE 0
___lwmod@dividend 162 0 BANK2 1
my_itoa@a 169 0 BANK2 1
__end_of_USBCheckStdRequest DBE 0 CODE 0
___lwmod@counter E8 0 BANK1 1
__Hstringtext6 0 0 ABS 0
__Lstringtext6 0 0 ABS 0
_BUTTON_Enable 14B2 0 CODE 0
_USBDeviceState 1D2 0 BANK3 1
__size_of_my_strlen 0 0 ABS 0
__pstringtext6 1868 0 STRCODE 0
__size_of_USBTransferOnePacket 0 0 ABS 0
__size_of_BUTTON_Enable 0 0 ABS 0
APP_DeviceCDCEmulatorTasks@max_6675_temp 1E5 0 BANK3 1
USBCtrlEPService@setup_cnt E3 0 BANK1 1
___awdiv@dividend 162 0 BANK2 1
%segments
reset_vec 0 3 CODE 0 0
intentry 8 FFF CODE 8 0
cstackCOMMON 70 7D COMMON 70 1
bssBANK5 2A0 2DF BANK5 2A0 1
bssBANK6 320 35F BANK6 320 1
bssBANK3 1A0 1ED BANK3 1A0 1
bssBANK4 220 23C BANK4 220 1
cstackBANK2 160 16F BANK2 160 1
cstackBANK0 60 6F BANK0 60 1
cstackBANK1 E0 EC BANK1 E0 1
text30 1EC8 1FFF CODE 1EC8 0
text36 1D9E 1EC7 CODE 1D9E 0
text39 1C82 1D9D CODE 1C82 0
text42 1B7C 1C81 CODE 1B7C 0
text38 1A7C 1B7B CODE 1A7C 0
text54 198C 1A7B CODE 198C 0
text26 18A0 198B CODE 18A0 0
text34 17B4 189F CODE 17B4 0
text53 16CE 17B3 CODE 16CE 0
text55 15EA 16CD CODE 15EA 0
text20 1514 15E9 CODE 1514 0
text45 1448 1513 CODE 1448 0
text22 1380 1447 CODE 1380 0
text48 12C4 137F CODE 12C4 0
text41 120E 12C3 CODE 120E 0
text37 115A 120D CODE 115A 0
text35 10C0 1159 CODE 10C0 0
text50 1038 10BF CODE 1038 0
stringtext3 2000 2085 STRCODE 2000 0
maintext 2F7E 2FFF CODE 2F7E 0
text14 2F00 2F7D CODE 2F00 0
text19 2E82 2EFF CODE 2E82 0
text18 2E0C 2E81 CODE 2E0C 0
text47 2D96 2E0B CODE 2D96 0
stringtext4 3000 3115 STRCODE 3000 0
text51 2D2E 2D95 CODE 2D2E 0
text44 2CCA 2D2D CODE 2CCA 0
text33 2C72 2CC9 CODE 2C72 0
text21 2C24 2C71 CODE 2C24 0
text49 2BDA 2C23 CODE 2BDA 0
text5 2B98 2BD9 CODE 2B98 0
text31 2B58 2B97 CODE 2B58 0
text32 2B1A 2B57 CODE 2B1A 0
text6 2AE0 2B19 CODE 2AE0 0
text15 2AA6 2ADF CODE 2AA6 0
text40 1000 1037 CODE 1000 0
text12 2A72 2AA5 CODE 2A72 0
text2 2A40 2A71 CODE 2A40 0
text16 2A14 2A3F CODE 2A14 0
text24 29EC 2A13 CODE 29EC 0
text7 29C6 29EB CODE 29C6 0
text46 29A0 29C5 CODE 29A0 0
text9 2980 299F CODE 2980 0
text8 2964 297F CODE 2964 0
text28 2948 2963 CODE 2948 0
text3 2930 2947 CODE 2930 0
clrtext 2924 292F CODE 2924 0
text11 291A 2923 CODE 291A 0
%locals
dist/PICKITx_16F1459/production/MPLAB.X.production.o
/tmp/xcSvziahR.s
4725 17 0 CODE 0
4728 17 0 CODE 0
4887 17 0 CODE 0
4888 18 0 CODE 0
4889 19 0 CODE 0
4890 1A 0 CODE 0
4891 1B 0 CODE 0
4895 1C 0 CODE 0
4896 1D 0 CODE 0
4897 1E 0 CODE 0
4898 1F 0 CODE 0
4899 20 0 CODE 0
4900 21 0 CODE 0
4904 24 0 CODE 0
4905 25 0 CODE 0
4906 26 0 CODE 0
4907 27 0 CODE 0
4908 28 0 CODE 0
4909 29 0 CODE 0
4913 2C 0 CODE 0
4914 2D 0 CODE 0
4915 2E 0 CODE 0
4916 2F 0 CODE 0
4917 30 0 CODE 0
4918 31 0 CODE 0
4922 34 0 CODE 0
4923 35 0 CODE 0
4924 36 0 CODE 0
4925 37 0 CODE 0
4926 38 0 CODE 0
4927 39 0 CODE 0
4933 3C 0 CODE 0
4935 3C 0 CODE 0
4936 3D 0 CODE 0
4937 3E 0 CODE 0
4876 1492 0 CODE 0
4877 1492 0 CODE 0
4878 1493 0 CODE 0
4879 1493 0 CODE 0
4880 1494 0 CODE 0
4881 1495 0 CODE 0
4882 1496 0 CODE 0
4883 1497 0 CODE 0
../src/main.c
56 17BF 0 CODE 0
58 17BF 0 CODE 0
60 17C2 0 CODE 0
61 17C5 0 CODE 0
62 17CA 0 CODE 0
64 17CD 0 CODE 0
65 17D1 0 CODE 0
66 17D4 0 CODE 0
67 17D7 0 CODE 0
69 17D8 0 CODE 0
71 17DA 0 CODE 0
72 17DD 0 CODE 0
75 17E0 0 CODE 0
79 17E3 0 CODE 0
102 17E9 0 CODE 0
105 17F0 0 CODE 0
111 17F0 0 CODE 0
117 17F6 0 CODE 0
118 17F9 0 CODE 0
120 17FA 0 CODE 0
../src/shell.c
39 4DC 0 CODE 0
44 4DC 0 CODE 0
45 4DD 0 CODE 0
46 4DD 0 CODE 0
47 4DF 0 CODE 0
48 4E0 0 CODE 0
49 4E0 0 CODE 0
50 4E2 0 CODE 0
52 4E3 0 CODE 0
53 4E3 0 CODE 0
54 4E5 0 CODE 0
55 4E6 0 CODE 0
56 4E6 0 CODE 0
57 4E8 0 CODE 0
60 4E9 0 CODE 0
61 4EA 0 CODE 0
62 4EC 0 CODE 0
63 4F7 0 CODE 0
65 4F9 0 CODE 0
66 50B 0 CODE 0
67 512 0 CODE 0
69 513 0 CODE 0
70 526 0 CODE 0
71 53A 0 CODE 0
72 542 0 CODE 0
77 54B 0 CODE 0
78 54C 0 CODE 0
79 54E 0 CODE 0
80 559 0 CODE 0
82 55B 0 CODE 0
83 56D 0 CODE 0
84 574 0 CODE 0
86 575 0 CODE 0
87 588 0 CODE 0
88 59C 0 CODE 0
89 5A4 0 CODE 0
93 5AD 0 CODE 0
94 5AD 0 CODE 0
95 5AF 0 CODE 0
96 5B0 0 CODE 0
44 5B1 0 CODE 0
98 5C6 0 CODE 0
../src/USART.c
68 1520 0 CODE 0
70 1520 0 CODE 0
71 1521 0 CODE 0
70 152E 0 CODE 0
73 1538 0 CODE 0
48 1498 0 CODE 0
50 149A 0 CODE 0
51 149F 0 CODE 0
52 14A3 0 CODE 0
../usb/src/usb_device.c
298 67A 0 CODE 0
302 67A 0 CODE 0
305 67C 0 CODE 0
308 67E 0 CODE 0
311 67F 0 CODE 0
313 680 0 CODE 0
315 69B 0 CODE 0
324 6A2 0 CODE 0
326 6A4 0 CODE 0
324 6B6 0 CODE 0
330 6C1 0 CODE 0
333 6C3 0 CODE 0
336 6C4 0 CODE 0
339 6C5 0 CODE 0
342 6C6 0 CODE 0
344 6C7 0 CODE 0
346 6CD 0 CODE 0
347 6CF 0 CODE 0
348 6D0 0 CODE 0
342 6D2 0 CODE 0
353 6D7 0 CODE 0
354 6DD 0 CODE 0
356 6E3 0 CODE 0
357 6E4 0 CODE 0
358 6E5 0 CODE 0
362 6E6 0 CODE 0
364 6E8 0 CODE 0
365 6EE 0 CODE 0
366 6F4 0 CODE 0
367 6FA 0 CODE 0
362 700 0 CODE 0
371 70C 0 CODE 0
373 712 0 CODE 0
375 715 0 CODE 0
376 71A 0 CODE 0
377 71C 0 CODE 0
378 722 0 CODE 0
381 723 0 CODE 0
384 725 0 CODE 0
385 726 0 CODE 0
1352 15CC 0 CODE 0
1355 15CC 0 CODE 0
1360 15D2 0 CODE 0
1363 15D4 0 CODE 0
1367 15D5 0 CODE 0
1369 15DB 0 CODE 0
1372 15DF 0 CODE 0
1375 15E6 0 CODE 0
1382 15EC 0 CODE 0
../src/system_config/system.c
89 1570 0 CODE 0
91 1572 0 CODE 0
97 1573 0 CODE 0
98 1575 0 CODE 0
100 1578 0 CODE 0
101 157C 0 CODE 0
102 1580 0 CODE 0
91 1581 0 CODE 0
110 158C 0 CODE 0
../bsp/leds.c
186 14E3 0 CODE 0
188 14E5 0 CODE 0
190 14E6 0 CODE 0
191 14E6 0 CODE 0
192 14E7 0 CODE 0
194 14E8 0 CODE 0
195 14E8 0 CODE 0
196 14E9 0 CODE 0
188 14EA 0 CODE 0
201 14F5 0 CODE 0
../bsp/buttons.c
89 14B2 0 CODE 0
91 14B4 0 CODE 0
102 14BF 0 CODE 0
../src/USART.c
38 14C0 0 CODE 0
40 14C0 0 CODE 0
41 14C3 0 CODE 0
43 14C5 0 CODE 0
44 14C8 0 CODE 0
45 14CB 0 CODE 0
46 14CF 0 CODE 0
../src/SPI_MAX6675.c
5 7FB 0 CODE 0
6 7FB 0 CODE 0
7 7FD 0 CODE 0
8 7FF 0 CODE 0
../src/ISR.c
38 148D 0 CODE 0
40 148D 0 CODE 0
41 148F 0 CODE 0
42 1490 0 CODE 0
43 1491 0 CODE 0
../src/IO.c
36 1539 0 CODE 0
38 1539 0 CODE 0
39 153B 0 CODE 0
40 153C 0 CODE 0
42 153D 0 CODE 0
43 153F 0 CODE 0
45 1540 0 CODE 0
46 1541 0 CODE 0
47 1542 0 CODE 0
48 1543 0 CODE 0
50 1544 0 CODE 0
51 1545 0 CODE 0
52 1546 0 CODE 0
53 1547 0 CODE 0
54 1548 0 CODE 0
56 1549 0 CODE 0
57 154B 0 CODE 0
58 154C 0 CODE 0
59 154D 0 CODE 0
61 154E 0 CODE 0
62 1550 0 CODE 0
64 1552 0 CODE 0
../src/app_device_cdc_basic.c
81 40 0 CODE 0
86 40 0 CODE 0
89 48 0 CODE 0
95 48 0 CODE 0
104 4E 0 CODE 0
112 54 0 CODE 0
115 61 0 CODE 0
117 63 0 CODE 0
120 75 0 CODE 0
121 75 0 CODE 0
122 77 0 CODE 0
123 78 0 CODE 0
124 78 0 CODE 0
125 7A 0 CODE 0
127 7B 0 CODE 0
128 7B 0 CODE 0
129 7D 0 CODE 0
130 7E 0 CODE 0
131 7E 0 CODE 0
132 80 0 CODE 0
134 81 0 CODE 0
135 81 0 CODE 0
136 83 0 CODE 0
137 8E 0 CODE 0
139 90 0 CODE 0
140 A2 0 CODE 0
141 A9 0 CODE 0
143 AA 0 CODE 0
144 BD 0 CODE 0
145 D1 0 CODE 0
146 D9 0 CODE 0
147 E2 0 CODE 0
148 EC 0 CODE 0
152 F5 0 CODE 0
153 F5 0 CODE 0
154 F7 0 CODE 0
155 102 0 CODE 0
157 104 0 CODE 0
158 116 0 CODE 0
159 11D 0 CODE 0
161 11E 0 CODE 0
162 131 0 CODE 0
163 145 0 CODE 0
118 14E 0 CODE 0
115 167 0 CODE 0
192 172 0 CODE 0
197 177 0 CODE 0
201 180 0 CODE 0
202 183 0 CODE 0
../usb/src/usb_device_cdc.c
686 1780 0 CODE 0
714 1780 0 CODE 0
715 1782 0 CODE 0
717 1788 0 CODE 0
718 178A 0 CODE 0
725 178B 0 CODE 0
726 178D 0 CODE 0
729 1791 0 CODE 0
730 1795 0 CODE 0
731 179B 0 CODE 0
739 17AB 0 CODE 0
740 17BC 0 CODE 0
741 17BE 0 CODE 0
613 1553 0 CODE 0
638 1555 0 CODE 0
639 1556 0 CODE 0
641 155C 0 CODE 0
643 156D 0 CODE 0
644 156F 0 CODE 0
../src/supplement.c
61 150A 0 CODE 0
63 150C 0 CODE 0
65 150D 0 CODE 0
66 150E 0 CODE 0
65 1514 0 CODE 0
68 151E 0 CODE 0
69 151F 0 CODE 0
38 5C7 0 CODE 0
40 5C7 0 CODE 0
41 5C7 0 CODE 0
42 5CF 0 CODE 0
43 5D3 0 CODE 0
44 5D4 0 CODE 0
45 5EC 0 CODE 0
43 5F0 0 CODE 0
47 5FE 0 CODE 0
48 607 0 CODE 0
49 60F 0 CODE 0
51 614 0 CODE 0
52 617 0 CODE 0
53 633 0 CODE 0
54 63E 0 CODE 0
56 65A 0 CODE 0
57 672 0 CODE 0
59 679 0 CODE 0
/Applications/microchip/xc8/v2.20/pic/sources/c90/common/lwmod.c
5 1706 0 CODE 0
12 1706 0 CODE 0
13 170D 0 CODE 0
14 1710 0 CODE 0
15 1711 0 CODE 0
16 1716 0 CODE 0
14 171B 0 CODE 0
19 1720 0 CODE 0
20 172B 0 CODE 0
21 172F 0 CODE 0
22 1734 0 CODE 0
24 173B 0 CODE 0
25 1740 0 CODE 0
/Applications/microchip/xc8/v2.20/pic/sources/c90/common/lwdiv.c
5 1741 0 CODE 0
13 1741 0 CODE 0
14 1744 0 CODE 0
15 174A 0 CODE 0
16 174C 0 CODE 0
17 174D 0 CODE 0
18 1752 0 CODE 0
16 1758 0 CODE 0
21 175C 0 CODE 0
22 1761 0 CODE 0
23 176B 0 CODE 0
24 176F 0 CODE 0
26 1770 0 CODE 0
27 1775 0 CODE 0
29 177B 0 CODE 0
30 177F 0 CODE 0
../usb/src/usb_device_cdc.c
542 A8A 0 CODE 0
544 A8C 0 CODE 0
546 A8E 0 CODE 0
552 AAA 0 CODE 0
553 AB5 0 CODE 0
558 ABC 0 CODE 0
559 ABF 0 CODE 0
558 AD2 0 CODE 0
565 ADF 0 CODE 0
569 AF2 0 CODE 0
571 AF4 0 CODE 0
../src/SPI_MAX6675.c
29 1612 0 CODE 0
32 1612 0 CODE 0
33 1624 0 CODE 0
35 1634 0 CODE 0
36 1638 0 CODE 0
/Applications/microchip/xc8/v2.20/pic/sources/c90/common/awdiv.c
5 9C0 0 CODE 0
13 9C0 0 CODE 0
14 9C2 0 CODE 0
15 9C6 0 CODE 0
16 9CB 0 CODE 0
18 9CD 0 CODE 0
19 9D1 0 CODE 0
20 9D6 0 CODE 0
22 9DC 0 CODE 0
23 9DE 0 CODE 0
24 9E4 0 CODE 0
25 9E6 0 CODE 0
26 9E7 0 CODE 0
27 9EC 0 CODE 0
25 9F2 0 CODE 0
30 9F6 0 CODE 0
31 9FB 0 CODE 0
32 A05 0 CODE 0
33 A09 0 CODE 0
35 A0A 0 CODE 0
36 A0F 0 CODE 0
38 A15 0 CODE 0
39 A1A 0 CODE 0
40 A1F 0 CODE 0
41 A23 0 CODE 0
../src/SPI_MAX6675.c
10 7C7 0 CODE 0
14 7C7 0 CODE 0
15 7CA 0 CODE 0
16 7CE 0 CODE 0
19 7D6 0 CODE 0
20 7D9 0 CODE 0
21 7DD 0 CODE 0
23 7E5 0 CODE 0
24 7F0 0 CODE 0
26 7F6 0 CODE 0
27 7FA 0 CODE 0
38 14F6 0 CODE 0
40 14F6 0 CODE 0
42 14FE 0 CODE 0
43 1509 0 CODE 0
../usb/src/usb_device_cdc.c
893 3EA 0 CODE 0
898 3EA 0 CODE 0
902 3EC 0 CODE 0
904 409 0 CODE 0
905 40B 0 CODE 0
913 40C 0 CODE 0
914 413 0 CODE 0
919 414 0 CODE 0
921 419 0 CODE 0
922 41B 0 CODE 0
928 41C 0 CODE 0
930 422 0 CODE 0
932 433 0 CODE 0
933 439 0 CODE 0
934 43A 0 CODE 0
939 43F 0 CODE 0
940 445 0 CODE 0
942 44B 0 CODE 0
947 450 0 CODE 0
949 458 0 CODE 0
951 45E 0 CODE 0
952 463 0 CODE 0
956 46A 0 CODE 0
957 479 0 CODE 0
958 47E 0 CODE 0
959 482 0 CODE 0
954 485 0 CODE 0
966 48C 0 CODE 0
967 49B 0 CODE 0
968 4A0 0 CODE 0
969 4A4 0 CODE 0
964 4A7 0 CODE 0
977 4AD 0 CODE 0
979 4B3 0 CODE 0
980 4BA 0 CODE 0
982 4C0 0 CODE 0
984 4C5 0 CODE 0
988 4D9 0 CODE 0
989 4DB 0 CODE 0
../usb/src/usb_device.c
995 C50 0 CODE 0
1000 C52 0 CODE 0
1003 C57 0 CODE 0
1004 C62 0 CODE 0
1008 C63 0 CODE 0
1013 C6E 0 CODE 0
1015 C73 0 CODE 0
1029 C75 0 CODE 0
1030 C88 0 CODE 0
1031 C93 0 CODE 0
1032 C9C 0 CODE 0
1033 CA1 0 CODE 0
1036 CA5 0 CODE 0
1039 CAA 0 CODE 0
1040 CB6 0 CODE 0
1044 CB7 0 CODE 0
1046 CC3 0 CODE 0
1047 CC5 0 CODE 0
../src/system_config/system.c
114 4 0 CODE 0
116 6 0 CODE 0
118 C 0 CODE 0
120 F 0 CODE 0
122 10 0 CODE 0
124 13 0 CODE 0
../src/ISR.c
45 14A4 0 CODE 0
47 14A4 0 CODE 0
49 14A5 0 CODE 0
50 14AA 0 CODE 0
51 14AB 0 CODE 0
54 14B0 0 CODE 0
55 14B1 0 CODE 0
../usb/src/usb_device.c
489 2C5 0 CODE 0
602 2C5 0 CODE 0
613 2CB 0 CODE 0
615 2D0 0 CODE 0
619 2D1 0 CODE 0
620 2D2 0 CODE 0
621 2D3 0 CODE 0
639 2D9 0 CODE 0
641 2E2 0 CODE 0
645 2E8 0 CODE 0
652 2EB 0 CODE 0
654 2F0 0 CODE 0
655 2F2 0 CODE 0
656 2F3 0 CODE 0
668 2F3 0 CODE 0
670 2FB 0 CODE 0
674 2FE 0 CODE 0
676 300 0 CODE 0
686 305 0 CODE 0
692 30B 0 CODE 0
698 313 0 CODE 0
701 316 0 CODE 0
704 31C 0 CODE 0
706 320 0 CODE 0
708 324 0 CODE 0
710 334 0 CODE 0
735 33A 0 CODE 0
737 340 0 CODE 0
738 342 0 CODE 0
744 342 0 CODE 0
746 347 0 CODE 0
751 34A 0 CODE 0
753 353 0 CODE 0
756 356 0 CODE 0
758 35F 0 CODE 0
759 36F 0 CODE 0
774 371 0 CODE 0
776 378 0 CODE 0
777 37A 0 CODE 0
778 37B 0 CODE 0
783 37B 0 CODE 0
785 380 0 CODE 0
786 382 0 CODE 0
787 382 0 CODE 0
790 387 0 CODE 0
791 38C 0 CODE 0
793 395 0 CODE 0
798 39B 0 CODE 0
800 3A0 0 CODE 0
801 3B1 0 CODE 0
804 3B2 0 CODE 0
810 3C3 0 CODE 0
812 3C9 0 CODE 0
813 3CC 0 CODE 0
816 3CD 0 CODE 0
785 3DC 0 CODE 0
824 3E7 0 CODE 0
826 3E7 0 CODE 0
827 3E9 0 CODE 0
298 F64 0 CODE 0
302 F64 0 CODE 0
305 F66 0 CODE 0
308 F68 0 CODE 0
311 F69 0 CODE 0
313 F6A 0 CODE 0
315 F82 0 CODE 0
324 F89 0 CODE 0
326 F8A 0 CODE 0
324 F9B 0 CODE 0
330 FA5 0 CODE 0
333 FA7 0 CODE 0
336 FA8 0 CODE 0
339 FA9 0 CODE 0
342 FAA 0 CODE 0
344 FAB 0 CODE 0
346 FAF 0 CODE 0
347 FB1 0 CODE 0
348 FB2 0 CODE 0
342 FB4 0 CODE 0
353 FB9 0 CODE 0
354 FBE 0 CODE 0
356 FC2 0 CODE 0
357 FC3 0 CODE 0
358 FC4 0 CODE 0
362 FC5 0 CODE 0
364 FC6 0 CODE 0
365 FCC 0 CODE 0
366 FD2 0 CODE 0
367 FD8 0 CODE 0
362 FDE 0 CODE 0
371 FE8 0 CODE 0
373 FED 0 CODE 0
375 FF0 0 CODE 0
376 FF5 0 CODE 0
377 FF7 0 CODE 0
378 FFB 0 CODE 0
381 FFC 0 CODE 0
384 FFE 0 CODE 0
385 FFF 0 CODE 0
2302 15AC 0 CODE 0
2304 15AC 0 CODE 0
2310 15AE 0 CODE 0
2317 15BD 0 CODE 0
2322 15BF 0 CODE 0
2340 15C0 0 CODE 0
2343 15C1 0 CODE 0
2340 15C7 0 CODE 0
2346 15CB 0 CODE 0
2245 158D 0 CODE 0
2270 158D 0 CODE 0
2271 158F 0 CODE 0
2274 1595 0 CODE 0
2277 1596 0 CODE 0
2284 159C 0 CODE 0
2285 15AB 0 CODE 0
2202 1639 0 CODE 0
2214 1639 0 CODE 0
2217 163E 0 CODE 0
2220 1652 0 CODE 0
2221 165A 0 CODE 0
2223 165E 0 CODE 0
2226 1660 0 CODE 0
2227 1664 0 CODE 0
2369 BDA 0 CODE 0
2375 BDA 0 CODE 0
2379 BE0 0 CODE 0
2383 BE7 0 CODE 0
2391 BF4 0 CODE 0
2393 BF8 0 CODE 0
2396 BFC 0 CODE 0
2404 C07 0 CODE 0
2406 C08 0 CODE 0
2407 C1C 0 CODE 0
2404 C25 0 CODE 0
2409 C2F 0 CODE 0
2412 C3B 0 CODE 0
2413 C3E 0 CODE 0
2417 C3F 0 CODE 0
2420 C43 0 CODE 0
2424 C4C 0 CODE 0
2427 C4F 0 CODE 0
2469 860 0 CODE 0
2474 860 0 CODE 0
2475 862 0 CODE 0
2476 863 0 CODE 0
2477 864 0 CODE 0
2478 865 0 CODE 0
2479 866 0 CODE 0
2488 868 0 CODE 0
2489 872 0 CODE 0
2490 877 0 CODE 0
2491 881 0 CODE 0
2492 886 0 CODE 0
2494 890 0 CODE 0
2495 892 0 CODE 0
2496 894 0 CODE 0
2497 895 0 CODE 0
2503 897 0 CODE 0
2504 89A 0 CODE 0
2517 8A9 0 CODE 0
2518 8AC 0 CODE 0
1616 ECF 0 CODE 0
1622 ECF 0 CODE 0
1628 ED1 0 CODE 0
1630 ED6 0 CODE 0
1632 EDA 0 CODE 0
1643 EDF 0 CODE 0
1645 EE5 0 CODE 0
1650 EE8 0 CODE 0
1651 EEA 0 CODE 0
1652 EEB 0 CODE 0
1659 EEC 0 CODE 0
1660 EF4 0 CODE 0
1661 F00 0 CODE 0
1662 F07 0 CODE 0
1663 F0B 0 CODE 0
1664 F13 0 CODE 0
1667 F18 0 CODE 0
1669 F18 0 CODE 0
1671 F1D 0 CODE 0
1685 F22 0 CODE 0
1687 F28 0 CODE 0
1710 F2B 0 CODE 0
1711 F2D 0 CODE 0
1712 F2E 0 CODE 0
1714 F33 0 CODE 0
1729 F37 0 CODE 0
1732 F3C 0 CODE 0
1733 F43 0 CODE 0
1734 F4F 0 CODE 0
1735 F56 0 CODE 0
1738 F5A 0 CODE 0
1739 F5C 0 CODE 0
1740 F5D 0 CODE 0
1748 F63 0 CODE 0
1488 8AD 0 CODE 0
1490 8AD 0 CODE 0
1491 8AF 0 CODE 0
1493 8B0 0 CODE 0
1496 8B7 0 CODE 0
1497 8BE 0 CODE 0
1498 8CA 0 CODE 0
1499 8D1 0 CODE 0
1500 8D5 0 CODE 0
1505 8D6 0 CODE 0
1507 8E4 0 CODE 0
1509 8EB 0 CODE 0
1514 8EE 0 CODE 0
1515 8FB 0 CODE 0
1516 902 0 CODE 0
1518 906 0 CODE 0
2689 D3E 0 CODE 0
2691 D3E 0 CODE 0
2695 D48 0 CODE 0
2696 D48 0 CODE 0
2697 D4A 0 CODE 0
2699 D50 0 CODE 0
2701 D51 0 CODE 0
2702 D54 0 CODE 0
2704 D55 0 CODE 0
2705 D58 0 CODE 0
2707 D59 0 CODE 0
2708 D5E 0 CODE 0
2709 D5F 0 CODE 0
2710 D65 0 CODE 0
2711 D66 0 CODE 0
2713 D67 0 CODE 0
2714 D6A 0 CODE 0
2717 D6B 0 CODE 0
2718 D6E 0 CODE 0
2720 D6F 0 CODE 0
2721 D75 0 CODE 0
2722 D76 0 CODE 0
2723 D7C 0 CODE 0
2724 D7D 0 CODE 0
2725 D7E 0 CODE 0
2726 D7E 0 CODE 0
2727 D80 0 CODE 0
2728 D8A 0 CODE 0
2730 D8B 0 CODE 0
2731 D99 0 CODE 0
2693 D9A 0 CODE 0
2736 DBD 0 CODE 0
1968 E41 0 CODE 0
1973 E41 0 CODE 0
1976 E43 0 CODE 0
1979 E5C 0 CODE 0
1982 E6A 0 CODE 0
1987 E6C 0 CODE 0
1989 E6E 0 CODE 0
1990 E74 0 CODE 0
1987 E7A 0 CODE 0
1994 E84 0 CODE 0
1997 E92 0 CODE 0
1999 E94 0 CODE 0
2002 E9A 0 CODE 0
2003 EA0 0 CODE 0
2006 EA6 0 CODE 0
2009 EAC 0 CODE 0
2012 EB1 0 CODE 0
2013 EB7 0 CODE 0
2017 EB8 0 CODE 0
2022 EC8 0 CODE 0
2024 ECE 0 CODE 0
/Applications/microchip/xc8/v2.20/pic/sources/c90/common/memset.c
8 800 0 CODE 0
18 800 0 CODE 0
19 804 0 CODE 0
20 805 0 CODE 0
19 80F 0 CODE 0
22 81B 0 CODE 0
../usb/src/usb_device.c
2129 907 0 CODE 0
2131 907 0 CODE 0
2132 909 0 CODE 0
2134 90A 0 CODE 0
2136 90B 0 CODE 0
2137 90B 0 CODE 0
2147 90D 0 CODE 0
2149 912 0 CODE 0
2152 915 0 CODE 0
2153 915 0 CODE 0
2154 917 0 CODE 0
2155 918 0 CODE 0
2156 918 0 CODE 0
2163 91A 0 CODE 0
2165 91F 0 CODE 0
2166 929 0 CODE 0
2169 92A 0 CODE 0
2172 934 0 CODE 0
2173 942 0 CODE 0
2134 947 0 CODE 0
2176 953 0 CODE 0
2178 953 0 CODE 0
2180 958 0 CODE 0
2181 95C 0 CODE 0
2182 95D 0 CODE 0
2184 961 0 CODE 0
2043 DBE 0 CODE 0
2045 DBE 0 CODE 0
2047 DC5 0 CODE 0
2049 DCA 0 CODE 0
2055 DCB 0 CODE 0
2057 DD0 0 CODE 0
2058 DD4 0 CODE 0
2063 DD5 0 CODE 0
2068 DDA 0 CODE 0
2074 DEA 0 CODE 0
2075 DF9 0 CODE 0
2076 E08 0 CODE 0
2079 E09 0 CODE 0
2086 E0C 0 CODE 0
2089 E12 0 CODE 0
2091 E22 0 CODE 0
2092 E2D 0 CODE 0
2104 E2E 0 CODE 0
2108 E31 0 CODE 0
2109 E33 0 CODE 0
2049 E34 0 CODE 0
2112 E40 0 CODE 0
2757 184 0 CODE 0
2803 184 0 CODE 0
2805 191 0 CODE 0
2806 193 0 CODE 0
2807 19A 0 CODE 0
2809 1A0 0 CODE 0
2816 1A2 0 CODE 0
2820 1C6 0 CODE 0
2823 1C7 0 CODE 0
2825 1CC 0 CODE 0
2826 1D6 0 CODE 0
2827 1E0 0 CODE 0
2830 1E1 0 CODE 0
2831 1EB 0 CODE 0
2838 1F5 0 CODE 0
2840 1F9 0 CODE 0
2841 1FD 0 CODE 0
2842 1FE 0 CODE 0
2844 1FE 0 CODE 0
2845 1FF 0 CODE 0
2850 1FF 0 CODE 0
2852 203 0 CODE 0
2853 20D 0 CODE 0
2856 20E 0 CODE 0
2860 218 0 CODE 0
2862 21E 0 CODE 0
2866 225 0 CODE 0
2868 229 0 CODE 0
2869 230 0 CODE 0
2872 231 0 CODE 0
2877 238 0 CODE 0
2878 23C 0 CODE 0
2879 240 0 CODE 0
2885 241 0 CODE 0
2887 245 0 CODE 0
2891 24C 0 CODE 0
2892 253 0 CODE 0
2893 257 0 CODE 0
2894 268 0 CODE 0
2898 269 0 CODE 0
2903 26D 0 CODE 0
2909 272 0 CODE 0
2911 27D 0 CODE 0
2913 281 0 CODE 0
2914 288 0 CODE 0
2917 289 0 CODE 0
2918 290 0 CODE 0
2920 290 0 CODE 0
2923 297 0 CODE 0
2924 2A8 0 CODE 0
2928 2A9 0 CODE 0
2976 2B0 0 CODE 0
2980 2BC 0 CODE 0
2983 2C4 0 CODE 0
../src/main.c
128 1665 0 CODE 0
130 1665 0 CODE 0
154 1666 0 CODE 0
155 1669 0 CODE 0
163 166A 0 CODE 0
164 166D 0 CODE 0
130 166E 0 CODE 0
176 1696 0 CODE 0
../usb/src/usb_device_cdc.c
204 A24 0 CODE 0
209 A24 0 CODE 0
214 A2D 0 CODE 0
221 A36 0 CODE 0
228 A41 0 CODE 0
229 A46 0 CODE 0
230 A4A 0 CODE 0
231 A4B 0 CODE 0
232 A4C 0 CODE 0
235 A4D 0 CODE 0
236 A52 0 CODE 0
237 A53 0 CODE 0
242 A54 0 CODE 0
243 A5B 0 CODE 0
244 A5F 0 CODE 0
245 A61 0 CODE 0
246 A62 0 CODE 0
249 A63 0 CODE 0
253 A70 0 CODE 0
256 A71 0 CODE 0
288 A76 0 CODE 0
289 A77 0 CODE 0
223 A78 0 CODE 0
317 A89 0 CODE 0
../src/app_device_cdc_basic.c
56 14D0 0 CODE 0
58 14D0 0 CODE 0
60 14D3 0 CODE 0
61 14D5 0 CODE 0
62 14D9 0 CODE 0
63 14DA 0 CODE 0
65 14E2 0 CODE 0
../usb/src/usb_device_cdc.c
351 16CB 0 CODE 0
354 16CB 0 CODE 0
355 16D4 0 CODE 0
356 16D5 0 CODE 0
357 16D6 0 CODE 0
359 16DC 0 CODE 0
372 16DE 0 CODE 0
373 16E7 0 CODE 0
375 16F0 0 CODE 0
376 1703 0 CODE 0
403 1704 0 CODE 0
404 1705 0 CODE 0
../usb/src/usb_device.c
995 962 0 CODE 0
1000 963 0 CODE 0
1003 968 0 CODE 0
1004 971 0 CODE 0
1008 972 0 CODE 0
1013 97B 0 CODE 0
1015 980 0 CODE 0
1029 982 0 CODE 0
1030 990 0 CODE 0
1031 997 0 CODE 0
1032 99E 0 CODE 0
1033 9A2 0 CODE 0
1036 9A6 0 CODE 0
1039 9AB 0 CODE 0
1040 9B4 0 CODE 0
1044 9B5 0 CODE 0
1046 9BE 0 CODE 0
1047 9BF 0 CODE 0
878 15ED 0 CODE 0
884 15EE 0 CODE 0
886 15F2 0 CODE 0
888 15F7 0 CODE 0
890 15FB 0 CODE 0
899 1601 0 CODE 0
901 160B 0 CODE 0
902 1611 0 CODE 0
1543 81C 0 CODE 0
1549 81D 0 CODE 0
1550 821 0 CODE 0
1552 83A 0 CODE 0
1557 83E 0 CODE 0
1559 843 0 CODE 0
1560 84C 0 CODE 0
1563 84D 0 CODE 0
1567 856 0 CODE 0
1568 85A 0 CODE 0
1585 85F 0 CODE 0
2541 1697 0 CODE 0
2543 1697 0 CODE 0
2545 169E 0 CODE 0
2546 16A1 0 CODE 0
2551 16A2 0 CODE 0
2558 16A3 0 CODE 0
2560 16A9 0 CODE 0
2561 16B1 0 CODE 0
2562 16BD 0 CODE 0
2563 16C4 0 CODE 0
2564 16C8 0 CODE 0
2567 16C9 0 CODE 0
2570 16CA 0 CODE 0
1852 727 0 CODE 0
1859 727 0 CODE 0
1865 72D 0 CODE 0
1867 73B 0 CODE 0
1868 73F 0 CODE 0
1870 73F 0 CODE 0
1874 746 0 CODE 0
1876 748 0 CODE 0
1874 758 0 CODE 0
1881 762 0 CODE 0
1883 768 0 CODE 0
1884 770 0 CODE 0
1885 77C 0 CODE 0
1887 783 0 CODE 0
1888 78A 0 CODE 0
1889 78E 0 CODE 0
1892 78F 0 CODE 0
1893 796 0 CODE 0
1901 79B 0 CODE 0
1902 7A3 0 CODE 0
1906 7AF 0 CODE 0
1907 7B6 0 CODE 0
1914 7BA 0 CODE 0
1926 7BD 0 CODE 0
1927 7BD 0 CODE 0
1941 7BE 0 CODE 0
1943 7C3 0 CODE 0
1947 7C6 0 CODE 0
1416 B67 0 CODE 0
1423 B67 0 CODE 0
1425 B6D 0 CODE 0
1426 B71 0 CODE 0
1428 B76 0 CODE 0
1432 B7A 0 CODE 0
1434 B81 0 CODE 0
1435 B86 0 CODE 0
1436 B8D 0 CODE 0
1437 B91 0 CODE 0
1438 B92 0 CODE 0
1440 B97 0 CODE 0
1445 B99 0 CODE 0
1446 BA1 0 CODE 0
1447 BAD 0 CODE 0
1448 BB4 0 CODE 0
1449 BB8 0 CODE 0
1453 BBD 0 CODE 0
1454 BC5 0 CODE 0
1455 BD1 0 CODE 0
1457 BD9 0 CODE 0
1459 BD9 0 CODE 0
2595 CC6 0 CODE 0
2599 CC6 0 CODE 0
2602 CCE 0 CODE 0
2607 CD2 0 CODE 0
2609 CD8 0 CODE 0
2610 CDD 0 CODE 0
2612 CE2 0 CODE 0
2613 CE7 0 CODE 0
2616 CE8 0 CODE 0
2621 CED 0 CODE 0
2623 CF3 0 CODE 0
2624 D00 0 CODE 0
2630 D03 0 CODE 0
2634 D0A 0 CODE 0
2635 D11 0 CODE 0
2636 D15 0 CODE 0
2639 D16 0 CODE 0
2641 D1B 0 CODE 0
2642 D22 0 CODE 0
2643 D26 0 CODE 0
2646 D27 0 CODE 0
2647 D2E 0 CODE 0
2651 D33 0 CODE 0
2656 D33 0 CODE 0
2658 D38 0 CODE 0
2661 D3A 0 CODE 0
2662 D3A 0 CODE 0
2665 D3B 0 CODE 0
2670 D3D 0 CODE 0
1771 AF5 0 CODE 0
1777 AF5 0 CODE 0
1778 AF9 0 CODE 0
1780 B03 0 CODE 0
1787 B07 0 CODE 0
1789 B0C 0 CODE 0
1790 B10 0 CODE 0
1791 B11 0 CODE 0
1793 B16 0 CODE 0
1795 B1A 0 CODE 0
1799 B1A 0 CODE 0
1804 B21 0 CODE 0
1808 B28 0 CODE 0
1809 B2C 0 CODE 0
1813 B31 0 CODE 0
1814 B44 0 CODE 0
1811 B46 0 CODE 0
1821 B4C 0 CODE 0
1822 B5F 0 CODE 0
1819 B61 0 CODE 0
1825 B66 0 CODE 0
